<?xml version="1.0" encoding="utf-8"?>
<!-- Generator: Adobe Illustrator 19.1.1, SVG Export Plug-In . SVG Version: 6.00 Build 0)  -->
<svg version="1.1" id="Laag_1" xmlns="http://www.w3.org/2000/svg" xmlns:xlink="http://www.w3.org/1999/xlink" x="0px" y="0px"
	 viewBox="0 0 960 178.6" enable-background="new 0 0 960 178.6" xml:space="preserve">
<polygon fill="#4B92CE" points="0,4.1 0,174.5 123.1,174.5 138.9,148.7 29.8,148.7 29.8,98.8 169.4,98.8 188.5,74.5 29.8,74.5 
	29.8,29.8 218.3,29.8 238.6,4.1 "/>
<polyline fill="#4B92CE" points="250.2,4.1 283.6,4.1 227.3,86.2 287.7,174.5 251.4,174.5 208.9,109.3 165.7,174.5 131.5,174.5 "/>
<g>
	<defs>
		<rect id="SVGID_1_" y="0" width="960" height="178.6"/>
	</defs>
	<clipPath id="SVGID_2_">
		<use xlink:href="#SVGID_1_"  overflow="visible"/>
	</clipPath>
	<path clip-path="url(#SVGID_2_)" fill="#BFC1BF" d="M377.7,24.4c-9.1,0-16.9,1.8-23.5,5.5c-6.6,3.7-12,8.6-16.1,14.7
		c-4.1,6.1-7.2,13.1-9.2,20.9c-2,7.8-3,15.8-3,23.9c0,8.1,1,16.1,3,23.9c2,7.8,5.1,14.8,9.2,20.9c4.1,6.1,9.5,11,16.1,14.7
		c6.6,3.7,14.4,5.5,23.5,5.5c9.1,0,16.9-1.8,23.5-5.5c6.6-3.7,12-8.6,16.1-14.7c4.1-6.1,7.2-13.1,9.2-20.9c2-7.8,3-15.8,3-23.9
		c0-8.1-1-16.1-3-23.9c-2-7.8-5.1-14.8-9.2-20.9c-4.1-6.1-9.5-11-16.1-14.7C394.6,26.2,386.8,24.4,377.7,24.4 M377.7,0
		c12.7,0,24.2,2.4,34.3,7.2c10.1,4.8,18.7,11.2,25.7,19.3c7,8.1,12.4,17.6,16.1,28.4c3.7,10.8,5.6,22.3,5.6,34.4
		c0,12.3-1.9,23.8-5.6,34.6c-3.7,10.8-9.1,20.3-16.1,28.4c-7,8.1-15.6,14.5-25.7,19.2c-10.1,4.7-21.5,7-34.3,7
		c-12.7,0-24.2-2.4-34.3-7c-10.1-4.7-18.7-11.1-25.7-19.2c-7-8.1-12.4-17.6-16.1-28.4c-3.7-10.8-5.6-22.4-5.6-34.6
		c0-12.1,1.9-23.6,5.6-34.4c3.7-10.8,9.1-20.3,16.1-28.4c7-8.1,15.6-14.6,25.7-19.3C353.5,2.4,365,0,377.7,0"/>
	<path clip-path="url(#SVGID_2_)" fill="#BFC1BF" d="M516.4,150.2h29.4c11.6,0,21.1-1.6,28.5-4.7c7.4-3.1,13.2-7.4,17.4-12.9
		c4.2-5.5,7.1-11.9,8.6-19.3c1.5-7.4,2.3-15.4,2.3-24c0-8.6-0.8-16.6-2.3-24c-1.5-7.4-4.4-13.8-8.6-19.3c-4.2-5.5-10-9.8-17.4-12.9
		c-7.4-3.1-16.9-4.7-28.5-4.7h-29.4V150.2z M486.6,4.1h70.7c13,0,24.4,2.2,33.9,6.7c9.6,4.5,17.3,10.5,23.4,18.3
		c6,7.7,10.5,16.8,13.5,27.1c2.9,10.3,4.4,21.4,4.4,33.2c0,11.8-1.5,22.8-4.4,33.2c-2.9,10.3-7.4,19.4-13.5,27.1
		c-6.1,7.7-13.8,13.8-23.4,18.3c-9.5,4.5-20.9,6.7-33.9,6.7h-70.7V4.1z"/>
	<path clip-path="url(#SVGID_2_)" fill="#BFC1BF" d="M657,4.1h29.8v99.3c0,5.7,0.3,11.5,0.8,17.4c0.6,5.9,2.1,11.2,4.8,15.9
		c2.6,4.7,6.6,8.6,11.9,11.6c5.3,3,12.9,4.5,22.6,4.5c9.7,0,17.2-1.5,22.6-4.5c5.3-3,9.3-6.9,11.9-11.6c2.6-4.7,4.2-10,4.8-15.9
		c0.6-5.9,0.8-11.7,0.8-17.4V4.1h29.8v109.1c0,11-1.7,20.5-5,28.6c-3.3,8.1-8.1,14.9-14.2,20.4c-6.1,5.5-13.5,9.6-22.1,12.3
		c-8.6,2.7-18.1,4.1-28.7,4.1c-10.5,0-20.1-1.4-28.7-4.1c-8.6-2.7-16-6.8-22.1-12.3c-6.1-5.5-10.9-12.3-14.2-20.4
		c-3.3-8.1-5-17.7-5-28.6V4.1z"/>
	<path clip-path="url(#SVGID_2_)" fill="#BFC1BF" d="M850.9,117.7c0,6.5,1.1,12.1,3.3,16.7c2.2,4.6,5.3,8.4,9.3,11.3
		c4,2.9,8.6,5.1,13.7,6.4c5.2,1.4,10.8,2,16.8,2c6.5,0,12.1-0.8,16.7-2.3c4.6-1.5,8.4-3.5,11.2-5.8c2.9-2.4,4.9-5.1,6.2-8.2
		c1.3-3.1,1.9-6.2,1.9-9.4c0-6.5-1.5-11.3-4.4-14.4c-2.9-3.1-6.2-5.3-9.7-6.6c-6.1-2.2-13.1-4.3-21.1-6.3c-8-2-17.9-4.6-29.7-7.8
		c-7.3-1.9-13.4-4.4-18.3-7.5c-4.9-3.1-8.7-6.6-11.6-10.4c-2.9-3.8-4.9-7.9-6.1-12.2c-1.2-4.3-1.8-8.7-1.8-13.1
		c0-8.6,1.8-16,5.4-22.3c3.6-6.3,8.3-11.5,14.2-15.6C853,8,859.6,5,867.1,3c7.5-2,15-3,22.7-3c8.9,0,17.3,1.2,25.2,3.5
		c7.9,2.3,14.8,5.8,20.8,10.4c6,4.6,10.7,10.3,14.2,17.1c3.5,6.8,5.3,14.6,5.3,23.5h-29.8c-0.8-11-4.5-18.7-11.2-23.3
		c-6.7-4.5-15.2-6.8-25.5-6.8c-3.5,0-7.1,0.4-10.7,1.1c-3.7,0.7-7,1.9-10,3.6c-3,1.7-5.5,3.9-7.5,6.8c-2,2.9-3,6.4-3,10.7
		c0,6.1,1.9,10.8,5.6,14.2c3.7,3.4,8.6,6,14.7,7.8c0.6,0.2,3.1,0.8,7.5,2c4.4,1.2,9.3,2.5,14.7,3.9c5.4,1.4,10.7,2.8,15.9,4.2
		c5.2,1.4,8.9,2.4,11.1,3c5.6,1.8,10.4,4.1,14.6,7.2c4.1,3,7.6,6.5,10.4,10.4c2.8,3.9,4.9,8.1,6.2,12.5c1.4,4.5,2,8.9,2,13.4
		c0,9.5-2,17.7-5.8,24.5c-3.9,6.8-9,12.3-15.4,16.6c-6.4,4.3-13.6,7.4-21.7,9.4c-8.1,2-16.4,3-24.8,3c-9.7,0-18.9-1.2-27.5-3.6
		c-8.6-2.4-16.1-6-22.4-11c-6.4-4.9-11.5-11.3-15.3-19c-3.8-7.7-5.8-16.8-6-27.3H850.9z"/>
</g>
<g>
</g>
<g>
</g>
<g>
</g>
<g>
</g>
<g>
</g>
<g>
</g>
<g>
</g>
<g>
</g>
<g>
</g>
<g>
</g>
<g>
</g>
<g>
</g>
<g>
</g>
<g>
</g>
<g>
</g>
</svg>
